Componente 2/simulation/qsim/mux.msim.vcd
$comment
	File created using the following command:
		vcd file mux.msim.vcd -direction
$end
$date
	Tue Dec 05 19:24:44 2017
$end
$version
	ModelSim Version 10.5b
$end
$timescale
	1ps
$end

$scope module mux_vhd_vec_tst $end
$var wire 1 ! A $end
$var wire 1 " B $end
$var wire 1 # C $end
$var wire 1 $ D $end
$var wire 1 % S0 $end
$var wire 1 & S1 $end
$var wire 1 ' Z $end

$scope module i1 $end
$var wire 1 ( gnd $end
$var wire 1 ) vcc $end
$var wire 1 * unknown $end
$var wire 1 + devoe $end
$var wire 1 , devclrn $end
$var wire 1 - devpor $end
$var wire 1 . ww_devoe $end
$var wire 1 / ww_devclrn $end
$var wire 1 0 ww_devpor $end
$var wire 1 1 ww_A $end
$var wire 1 2 ww_B $end
$var wire 1 3 ww_C $end
$var wire 1 4 ww_D $end
$var wire 1 5 ww_S0 $end
$var wire 1 6 ww_S1 $end
$var wire 1 7 ww_Z $end
$var wire 1 8 \Z~output_o\ $end
$var wire 1 9 \A~input_o\ $end
$var wire 1 : \C~input_o\ $end
$var wire 1 ; \B~input_o\ $end
$var wire 1 < \D~input_o\ $end
$var wire 1 = \S1~input_o\ $end
$var wire 1 > \S0~input_o\ $end
$var wire 1 ? \Z~0_combout\ $end
$var wire 1 @ \ALT_INV_S0~input_o\ $end
$var wire 1 A \ALT_INV_S1~input_o\ $end
$var wire 1 B \ALT_INV_D~input_o\ $end
$var wire 1 C \ALT_INV_B~input_o\ $end
$var wire 1 D \ALT_INV_C~input_o\ $end
$var wire 1 E \ALT_INV_A~input_o\ $end
$upscope $end
$upscope $end
$enddefinitions $end
#0
$dumpvars
0!
0"
0#
0$
0%
0&
0'
0(
1)
x*
1+
1,
1-
1.
1/
10
01
02
03
04
05
06
07
08
09
0:
0;
0<
0=
0>
0?
1@
1A
1B
1C
1D
1E
$end
#500000
1!
1#
1%
11
13
15
1>
1:
19
0E
0D
0@
#1000000
0!
0#
0%
1"
1$
1&
01
03
05
12
14
16
1=
1<
1;
0>
0:
09
1E
1D
1@
0C
0B
0A
#1500000
1!
1#
1%
11
13
15
1>
1:
19
0E
0D
0@
1?
18
17
1'
#2000000
0!
0#
0%
0"
0$
0&
01
03
05
02
04
06
0=
0<
0;
0>
0:
09
1E
1D
1@
1C
1B
1A
0?
08
07
0'
#2500000
1!
1#
1%
11
13
15
1>
1:
19
0E
0D
0@
#3000000
0!
0#
0%
1"
1$
1&
01
03
05
12
14
16
1=
1<
1;
0>
0:
09
1E
1D
1@
0C
0B
0A
#3500000
1!
1#
1%
11
13
15
1>
1:
19
0E
0D
0@
1?
18
17
1'
#4000000
0!
0#
0%
0"
0$
0&
01
03
05
02
04
06
0=
0<
0;
0>
0:
09
1E
1D
1@
1C
1B
1A
0?
08
07
0'
#4500000
1!
1#
1%
11
13
15
1>
1:
19
0E
0D
0@
#5000000
0!
0#
0%
1"
1$
1&
01
03
05
12
14
16
1=
1<
1;
0>
0:
09
1E
1D
1@
0C
0B
0A
#5500000
1!
1#
1%
11
13
15
1>
1:
19
0E
0D
0@
1?
18
17
1'
#6000000
0!
0#
0%
0"
0$
0&
01
03
05
02
04
06
0=
0<
0;
0>
0:
09
1E
1D
1@
1C
1B
1A
0?
08
07
0'
#6500000
1!
1#
1%
11
13
15
1>
1:
19
0E
0D
0@
#7000000
0!
0#
0%
1"
1$
1&
01
03
05
12
14
16
1=
1<
1;
0>
0:
09
1E
1D
1@
0C
0B
0A
#7500000
1!
1#
1%
11
13
15
1>
1:
19
0E
0D
0@
1?
18
17
1'
#8000000
0!
0#
0%
0"
0$
0&
01
03
05
02
04
06
0=
0<
0;
0>
0:
09
1E
1D
1@
1C
1B
1A
0?
08
07
0'
#8500000
1!
1#
1%
11
13
15
1>
1:
19
0E
0D
0@
#9000000
0!
0#
0%
1"
1$
1&
01
03
05
12
14
16
1=
1<
1;
0>
0:
09
1E
1D
1@
0C
0B
0A
#9500000
1!
1#
1%
11
13
15
1>
1:
19
0E
0D
0@
1?
18
17
1'
#10000000
0!
0#
0%
0"
0$
0&
01
03
05
02
04
06
0=
0<
0;
0>
0:
09
1E
1D
1@
1C
1B
1A
0?
08
07
0'
#10500000
1!
1#
1%
11
13
15
1>
1:
19
0E
0D
0@
#11000000
0!
0#
0%
1"
1$
1&
01
03
05
12
14
16
1=
1<
1;
0>
0:
09
1E
1D
1@
0C
0B
0A
#11500000
1!
1#
1%
11
13
15
1>
1:
19
0E
0D
0@
1?
18
17
1'
#12000000
0!
0#
0%
0"
0$
0&
01
03
05
02
04
06
0=
0<
0;
0>
0:
09
1E
1D
1@
1C
1B
1A
0?
08
07
0'
#12500000
1!
1#
1%
11
13
15
1>
1:
19
0E
0D
0@
#13000000
0!
0#
0%
1"
1$
1&
01
03
05
12
14
16
1=
1<
1;
0>
0:
09
1E
1D
1@
0C
0B
0A
#13500000
1!
1#
1%
11
13
15
1>
1:
19
0E
0D
0@
1?
18
17
1'
#14000000
0!
0#
0%
0"
0$
0&
01
03
05
02
04
06
0=
0<
0;
0>
0:
09
1E
1D
1@
1C
1B
1A
0?
08
07
0'
#14500000
1!
1#
1%
11
13
15
1>
1:
19
0E
0D
0@
#15000000
0!
0#
0%
1"
1$
1&
01
03
05
12
14
16
1=
1<
1;
0>
0:
09
1E
1D
1@
0C
0B
0A
#15500000
1!
1#
1%
11
13
15
1>
1:
19
0E
0D
0@
1?
18
17
1'
