Componente 1/JK_FF/simulation/qsim/JK_FF.msim.vcd
$comment
	File created using the following command:
		vcd file JK_FF.msim.vcd -direction
$end
$date
	Tue Dec 05 18:55:04 2017
$end
$version
	ModelSim Version 10.5b
$end
$timescale
	1ps
$end

$scope module jk_ff_vhd_vec_tst $end
$var wire 1 ! CLOCK $end
$var wire 1 " J $end
$var wire 1 # K $end
$var wire 1 $ Q $end
$var wire 1 % QB $end

$scope module i1 $end
$var wire 1 & gnd $end
$var wire 1 ' vcc $end
$var wire 1 ( unknown $end
$var wire 1 ) devoe $end
$var wire 1 * devclrn $end
$var wire 1 + devpor $end
$var wire 1 , ww_devoe $end
$var wire 1 - ww_devclrn $end
$var wire 1 . ww_devpor $end
$var wire 1 / ww_J $end
$var wire 1 0 ww_K $end
$var wire 1 1 ww_CLOCK $end
$var wire 1 2 ww_Q $end
$var wire 1 3 ww_QB $end
$var wire 1 4 \Q~output_o\ $end
$var wire 1 5 \QB~output_o\ $end
$var wire 1 6 \CLOCK~input_o\ $end
$var wire 1 7 \K~input_o\ $end
$var wire 1 8 \J~input_o\ $end
$var wire 1 9 \TMP~0_combout\ $end
$var wire 1 : \TMP~q\ $end
$var wire 1 ; \ALT_INV_J~input_o\ $end
$var wire 1 < \ALT_INV_K~input_o\ $end
$var wire 1 = \ALT_INV_TMP~q\ $end
$upscope $end
$upscope $end
$enddefinitions $end
#0
$dumpvars
0!
0"
0#
1$
0%
0&
1'
x(
1)
1*
1+
1,
1-
1.
0/
00
01
12
03
14
05
06
07
08
09
0:
1;
1<
1=
$end
#500000
1!
1"
11
1/
18
16
0;
19
#1000000
0!
0"
1#
01
0/
10
17
08
06
1;
0<
09
#1500000
1!
1"
11
1/
18
16
0;
19
#2000000
0!
0"
0#
01
0/
00
07
08
06
1;
1<
09
#2500000
1!
1"
11
1/
18
16
0;
19
#3000000
0!
0"
1#
01
0/
10
17
08
06
1;
0<
09
#3500000
1!
1"
11
1/
18
16
0;
19
#4000000
0!
0"
0#
01
0/
00
07
08
06
1;
1<
09
#4500000
1!
1"
11
1/
18
16
0;
19
#5000000
0!
0"
1#
01
0/
10
17
08
06
1;
0<
09
#5500000
1!
1"
11
1/
18
16
0;
19
#6000000
0!
0"
0#
01
0/
00
07
08
06
1;
1<
09
#6500000
1!
1"
11
1/
18
16
0;
19
#7000000
0!
0"
1#
01
0/
10
17
08
06
1;
0<
09
#7500000
1!
1"
11
1/
18
16
0;
19
#8000000
0!
0"
0#
01
0/
00
07
08
06
1;
1<
09
#8500000
1!
1"
11
1/
18
16
0;
19
#9000000
0!
0"
1#
01
0/
10
17
08
06
1;
0<
09
#9500000
1!
1"
11
1/
18
16
0;
19
#10000000
0!
0"
0#
01
0/
00
07
08
06
1;
1<
09
#10500000
1!
1"
11
1/
18
16
0;
19
#11000000
0!
0"
1#
01
0/
10
17
08
06
1;
0<
09
#11500000
1!
1"
11
1/
18
16
0;
19
#12000000
0!
0"
0#
01
0/
00
07
08
06
1;
1<
09
#12500000
1!
1"
11
1/
18
16
0;
19
#13000000
0!
0"
1#
01
0/
10
17
08
06
1;
0<
09
#13500000
1!
1"
11
1/
18
16
0;
19
#14000000
0!
0"
0#
01
0/
00
07
08
06
1;
1<
09
#14500000
1!
1"
11
1/
18
16
0;
19
#15000000
0!
0"
1#
01
0/
10
17
08
06
1;
0<
09
#15500000
1!
1"
11
1/
18
16
0;
19
