Componente 4/simulation/qsim/somador.msim.vcd
$comment
	File created using the following command:
		vcd file somador.msim.vcd -direction
$end
$date
	Tue Dec 05 22:39:13 2017
$end
$version
	ModelSim Version 10.5b
$end
$timescale
	1ps
$end

$scope module somador_vhd_vec_tst $end
$var wire 1 ! a [7] $end
$var wire 1 " a [6] $end
$var wire 1 # a [5] $end
$var wire 1 $ a [4] $end
$var wire 1 % a [3] $end
$var wire 1 & a [2] $end
$var wire 1 ' a [1] $end
$var wire 1 ( a [0] $end
$var wire 1 ) b [7] $end
$var wire 1 * b [6] $end
$var wire 1 + b [5] $end
$var wire 1 , b [4] $end
$var wire 1 - b [3] $end
$var wire 1 . b [2] $end
$var wire 1 / b [1] $end
$var wire 1 0 b [0] $end
$var wire 1 1 cin $end
$var wire 1 2 cout $end
$var wire 1 3 s [7] $end
$var wire 1 4 s [6] $end
$var wire 1 5 s [5] $end
$var wire 1 6 s [4] $end
$var wire 1 7 s [3] $end
$var wire 1 8 s [2] $end
$var wire 1 9 s [1] $end
$var wire 1 : s [0] $end

$scope module i1 $end
$var wire 1 ; gnd $end
$var wire 1 < vcc $end
$var wire 1 = unknown $end
$var wire 1 > devoe $end
$var wire 1 ? devclrn $end
$var wire 1 @ devpor $end
$var wire 1 A ww_devoe $end
$var wire 1 B ww_devclrn $end
$var wire 1 C ww_devpor $end
$var wire 1 D ww_cin $end
$var wire 1 E ww_a [7] $end
$var wire 1 F ww_a [6] $end
$var wire 1 G ww_a [5] $end
$var wire 1 H ww_a [4] $end
$var wire 1 I ww_a [3] $end
$var wire 1 J ww_a [2] $end
$var wire 1 K ww_a [1] $end
$var wire 1 L ww_a [0] $end
$var wire 1 M ww_b [7] $end
$var wire 1 N ww_b [6] $end
$var wire 1 O ww_b [5] $end
$var wire 1 P ww_b [4] $end
$var wire 1 Q ww_b [3] $end
$var wire 1 R ww_b [2] $end
$var wire 1 S ww_b [1] $end
$var wire 1 T ww_b [0] $end
$var wire 1 U ww_cout $end
$var wire 1 V ww_s [7] $end
$var wire 1 W ww_s [6] $end
$var wire 1 X ww_s [5] $end
$var wire 1 Y ww_s [4] $end
$var wire 1 Z ww_s [3] $end
$var wire 1 [ ww_s [2] $end
$var wire 1 \ ww_s [1] $end
$var wire 1 ] ww_s [0] $end
$var wire 1 ^ \cout~output_o\ $end
$var wire 1 _ \s[0]~output_o\ $end
$var wire 1 ` \s[1]~output_o\ $end
$var wire 1 a \s[2]~output_o\ $end
$var wire 1 b \s[3]~output_o\ $end
$var wire 1 c \s[4]~output_o\ $end
$var wire 1 d \s[5]~output_o\ $end
$var wire 1 e \s[6]~output_o\ $end
$var wire 1 f \s[7]~output_o\ $end
$var wire 1 g \a[7]~input_o\ $end
$var wire 1 h \b[7]~input_o\ $end
$var wire 1 i \a[6]~input_o\ $end
$var wire 1 j \b[6]~input_o\ $end
$var wire 1 k \a[5]~input_o\ $end
$var wire 1 l \b[5]~input_o\ $end
$var wire 1 m \a[4]~input_o\ $end
$var wire 1 n \b[4]~input_o\ $end
$var wire 1 o \a[3]~input_o\ $end
$var wire 1 p \b[3]~input_o\ $end
$var wire 1 q \a[2]~input_o\ $end
$var wire 1 r \b[2]~input_o\ $end
$var wire 1 s \a[1]~input_o\ $end
$var wire 1 t \b[1]~input_o\ $end
$var wire 1 u \a[0]~input_o\ $end
$var wire 1 v \b[0]~input_o\ $end
$var wire 1 w \cin~input_o\ $end
$var wire 1 x \c~0_combout\ $end
$var wire 1 y \c~1_combout\ $end
$var wire 1 z \c~2_combout\ $end
$var wire 1 { \c~3_combout\ $end
$var wire 1 | \soma~0_combout\ $end
$var wire 1 } \soma~1_combout\ $end
$var wire 1 ~ \soma~2_combout\ $end
$var wire 1 !! \soma~3_combout\ $end
$var wire 1 "! \c~4_combout\ $end
$var wire 1 #! \soma~4_combout\ $end
$var wire 1 $! \soma~5_combout\ $end
$var wire 1 %! \c~5_combout\ $end
$var wire 1 &! \soma~6_combout\ $end
$var wire 1 '! \soma~7_combout\ $end
$var wire 1 (! \ALT_INV_c~0_combout\ $end
$var wire 1 )! \ALT_INV_c~1_combout\ $end
$var wire 1 *! \ALT_INV_cin~input_o\ $end
$var wire 1 +! \ALT_INV_b[0]~input_o\ $end
$var wire 1 ,! \ALT_INV_a[0]~input_o\ $end
$var wire 1 -! \ALT_INV_b[1]~input_o\ $end
$var wire 1 .! \ALT_INV_a[1]~input_o\ $end
$var wire 1 /! \ALT_INV_b[2]~input_o\ $end
$var wire 1 0! \ALT_INV_a[2]~input_o\ $end
$var wire 1 1! \ALT_INV_b[3]~input_o\ $end
$var wire 1 2! \ALT_INV_a[3]~input_o\ $end
$var wire 1 3! \ALT_INV_b[4]~input_o\ $end
$var wire 1 4! \ALT_INV_a[4]~input_o\ $end
$var wire 1 5! \ALT_INV_b[5]~input_o\ $end
$var wire 1 6! \ALT_INV_a[5]~input_o\ $end
$var wire 1 7! \ALT_INV_b[6]~input_o\ $end
$var wire 1 8! \ALT_INV_a[6]~input_o\ $end
$var wire 1 9! \ALT_INV_b[7]~input_o\ $end
$var wire 1 :! \ALT_INV_a[7]~input_o\ $end
$var wire 1 ;! \ALT_INV_c~5_combout\ $end
$var wire 1 <! \ALT_INV_c~4_combout\ $end
$var wire 1 =! \ALT_INV_c~2_combout\ $end
$upscope $end
$upscope $end
$enddefinitions $end
#0
$dumpvars
01
02
0;
1<
x=
1>
1?
1@
1A
1B
1C
0D
0U
0^
0_
0`
0a
0b
0c
0d
0e
0f
0g
0h
0i
0j
0k
0l
0m
0n
0o
0p
0q
0r
0s
0t
0u
0v
0w
0x
0y
0z
0{
0|
0}
0~
0!!
0"!
0#!
0$!
0%!
0&!
0'!
1(!
1)!
1*!
1+!
1,!
1-!
1.!
1/!
10!
11!
12!
13!
14!
15!
16!
17!
18!
19!
1:!
1;!
1<!
1=!
0!
0"
0#
0$
0%
0&
0'
0(
0)
0*
0+
0,
0-
0.
0/
00
0E
0F
0G
0H
0I
0J
0K
0L
0M
0N
0O
0P
0Q
0R
0S
0T
0V
0W
0X
0Y
0Z
0[
0\
0]
03
04
05
06
07
08
09
0:
$end
#500000
1!
1"
1#
1$
1%
1&
1'
1(
11
1L
1K
1J
1I
1H
1G
1F
1E
1D
1w
1g
1i
1k
1m
1o
1q
1s
1u
0,!
0.!
00!
02!
04!
06!
08!
0:!
0*!
1%!
1'!
1"!
1$!
1~
1!!
1x
0(!
0<!
0;!
1&!
1y
0~
0!!
0)!
1b
1a
1d
1f
1z
0$!
0&!
1Z
1[
1X
1V
0=!
18
17
15
13
0b
0a
1e
1{
0'!
0Z
0[
1W
08
07
14
0e
0d
0W
0X
05
04
0f
1^
0V
1U
03
12
#1000000
0!
0"
0#
0$
0%
0&
0'
0(
01
1)
1*
1+
1,
1-
1.
1/
10
0L
0K
0J
0I
0H
0G
0F
0E
0D
1T
1S
1R
1Q
1P
1O
1N
1M
1h
1j
1l
1n
1p
1r
1t
1v
0w
0g
0i
0k
0m
0o
0q
0s
0u
1,!
1.!
10!
12!
14!
16!
18!
1:!
1*!
0+!
0-!
0/!
01!
03!
05!
07!
09!
0x
1|
1}
1(!
0y
1~
1!!
1#!
1)!
1`
1_
0z
1$!
1&!
1\
1]
1=!
1:
19
1c
1b
1a
0{
1'!
1Y
1Z
1[
18
17
16
1e
1d
1W
1X
15
14
1f
0^
1V
0U
13
02
#1500000
1!
1"
1#
1$
1%
1&
1'
1(
11
1L
1K
1J
1I
1H
1G
1F
1E
1D
1w
1g
1i
1k
1m
1o
1q
1s
1u
0,!
0.!
00!
02!
04!
06!
08!
0:!
0*!
1{
0%!
1z
0"!
0&!
1y
0~
0#!
1x
0(!
0)!
1<!
0=!
1;!
1&!
1~
1#!
0c
0a
0e
1^
0Y
0[
0W
1U
08
06
04
12
1c
1a
1e
1Y
1[
1W
18
16
14
#2000000
0!
0"
0#
0$
0%
0&
0'
0(
01
0)
0*
0+
0,
0-
0.
0/
00
0L
0K
0J
0I
0H
0G
0F
0E
0D
0T
0S
0R
0Q
0P
0O
0N
0M
0h
0j
0l
0n
0p
0r
0t
0v
0w
0g
0i
0k
0m
0o
0q
0s
0u
1,!
1.!
10!
12!
14!
16!
18!
1:!
1*!
1+!
1-!
1/!
11!
13!
15!
17!
19!
0{
0'!
0z
0$!
0&!
0y
0!!
0#!
0x
0|
0}
1(!
1)!
1=!
0~
0`
0_
0c
0b
0e
0d
0f
0^
0\
0]
0Y
0Z
0W
0X
0V
0U
0:
09
07
06
05
04
03
02
0a
0[
08
#2500000
1!
1"
1#
1$
1%
1&
1'
1(
11
1L
1K
1J
1I
1H
1G
1F
1E
1D
1w
1g
1i
1k
1m
1o
1q
1s
1u
0,!
0.!
00!
02!
04!
06!
08!
0:!
0*!
1%!
1'!
1"!
1$!
1~
1!!
1x
0(!
0<!
0;!
1&!
1y
0~
0!!
0)!
1b
1a
1d
1f
1z
0$!
0&!
1Z
1[
1X
1V
0=!
18
17
15
13
0b
0a
1e
1{
0'!
0Z
0[
1W
08
07
14
0e
0d
0W
0X
05
04
0f
1^
0V
1U
03
12
#3000000
0!
0"
0#
0$
0%
0&
0'
0(
01
1)
1*
1+
1,
1-
1.
1/
10
0L
0K
0J
0I
0H
0G
0F
0E
0D
1T
1S
1R
1Q
1P
1O
1N
1M
1h
1j
1l
1n
1p
1r
1t
1v
0w
0g
0i
0k
0m
0o
0q
0s
0u
1,!
1.!
10!
12!
14!
16!
18!
1:!
1*!
0+!
0-!
0/!
01!
03!
05!
07!
09!
0x
1|
1}
1(!
0y
1~
1!!
1#!
1)!
1`
1_
0z
1$!
1&!
1\
1]
1=!
1:
19
1c
1b
1a
0{
1'!
1Y
1Z
1[
18
17
16
1e
1d
1W
1X
15
14
1f
0^
1V
0U
13
02
#3500000
1!
1"
1#
1$
1%
1&
1'
1(
11
1L
1K
1J
1I
1H
1G
1F
1E
1D
1w
1g
1i
1k
1m
1o
1q
1s
1u
0,!
0.!
00!
02!
04!
06!
08!
0:!
0*!
1{
0%!
1z
0"!
0&!
1y
0~
0#!
1x
0(!
0)!
1<!
0=!
1;!
1&!
1~
1#!
0c
0a
0e
1^
0Y
0[
0W
1U
08
06
04
12
1c
1a
1e
1Y
1[
1W
18
16
14
#4000000
0!
0"
0#
0$
0%
0&
0'
0(
01
0)
0*
0+
0,
0-
0.
0/
00
0L
0K
0J
0I
0H
0G
0F
0E
0D
0T
0S
0R
0Q
0P
0O
0N
0M
0h
0j
0l
0n
0p
0r
0t
0v
0w
0g
0i
0k
0m
0o
0q
0s
0u
1,!
1.!
10!
12!
14!
16!
18!
1:!
1*!
1+!
1-!
1/!
11!
13!
15!
17!
19!
0{
0'!
0z
0$!
0&!
0y
0!!
0#!
0x
0|
0}
1(!
1)!
1=!
0~
0`
0_
0c
0b
0e
0d
0f
0^
0\
0]
0Y
0Z
0W
0X
0V
0U
0:
09
07
06
05
04
03
02
0a
0[
08
#4500000
1!
1"
1#
1$
1%
1&
1'
1(
11
1L
1K
1J
1I
1H
1G
1F
1E
1D
1w
1g
1i
1k
1m
1o
1q
1s
1u
0,!
0.!
00!
02!
04!
06!
08!
0:!
0*!
1%!
1'!
1"!
1$!
1~
1!!
1x
0(!
0<!
0;!
1&!
1y
0~
0!!
0)!
1b
1a
1d
1f
1z
0$!
0&!
1Z
1[
1X
1V
0=!
18
17
15
13
0b
0a
1e
1{
0'!
0Z
0[
1W
08
07
14
0e
0d
0W
0X
05
04
0f
1^
0V
1U
03
12
#5000000
0!
0"
0#
0$
0%
0&
0'
0(
01
1)
1*
1+
1,
1-
1.
1/
10
0L
0K
0J
0I
0H
0G
0F
0E
0D
1T
1S
1R
1Q
1P
1O
1N
1M
1h
1j
1l
1n
1p
1r
1t
1v
0w
0g
0i
0k
0m
0o
0q
0s
0u
1,!
1.!
10!
12!
14!
16!
18!
1:!
1*!
0+!
0-!
0/!
01!
03!
05!
07!
09!
0x
1|
1}
1(!
0y
1~
1!!
1#!
1)!
1`
1_
0z
1$!
1&!
1\
1]
1=!
1:
19
1c
1b
1a
0{
1'!
1Y
1Z
1[
18
17
16
1e
1d
1W
1X
15
14
1f
0^
1V
0U
13
02
#5500000
1!
1"
1#
1$
1%
1&
1'
1(
11
1L
1K
1J
1I
1H
1G
1F
1E
1D
1w
1g
1i
1k
1m
1o
1q
1s
1u
0,!
0.!
00!
02!
04!
06!
08!
0:!
0*!
1{
0%!
1z
0"!
0&!
1y
0~
0#!
1x
0(!
0)!
1<!
0=!
1;!
1&!
1~
1#!
0c
0a
0e
1^
0Y
0[
0W
1U
08
06
04
12
1c
1a
1e
1Y
1[
1W
18
16
14
#6000000
0!
0"
0#
0$
0%
0&
0'
0(
01
0)
0*
0+
0,
0-
0.
0/
00
0L
0K
0J
0I
0H
0G
0F
0E
0D
0T
0S
0R
0Q
0P
0O
0N
0M
0h
0j
0l
0n
0p
0r
0t
0v
0w
0g
0i
0k
0m
0o
0q
0s
0u
1,!
1.!
10!
12!
14!
16!
18!
1:!
1*!
1+!
1-!
1/!
11!
13!
15!
17!
19!
0{
0'!
0z
0$!
0&!
0y
0!!
0#!
0x
0|
0}
1(!
1)!
1=!
0~
0`
0_
0c
0b
0e
0d
0f
0^
0\
0]
0Y
0Z
0W
0X
0V
0U
0:
09
07
06
05
04
03
02
0a
0[
08
#6500000
1!
1"
1#
1$
1%
1&
1'
1(
11
1L
1K
1J
1I
1H
1G
1F
1E
1D
1w
1g
1i
1k
1m
1o
1q
1s
1u
0,!
0.!
00!
02!
04!
06!
08!
0:!
0*!
1%!
1'!
1"!
1$!
1~
1!!
1x
0(!
0<!
0;!
1&!
1y
0~
0!!
0)!
1b
1a
1d
1f
1z
0$!
0&!
1Z
1[
1X
1V
0=!
18
17
15
13
0b
0a
1e
1{
0'!
0Z
0[
1W
08
07
14
0e
0d
0W
0X
05
04
0f
1^
0V
1U
03
12
#7000000
0!
0"
0#
0$
0%
0&
0'
0(
01
1)
1*
1+
1,
1-
1.
1/
10
0L
0K
0J
0I
0H
0G
0F
0E
0D
1T
1S
1R
1Q
1P
1O
1N
1M
1h
1j
1l
1n
1p
1r
1t
1v
0w
0g
0i
0k
0m
0o
0q
0s
0u
1,!
1.!
10!
12!
14!
16!
18!
1:!
1*!
0+!
0-!
0/!
01!
03!
05!
07!
09!
0x
1|
1}
1(!
0y
1~
1!!
1#!
1)!
1`
1_
0z
1$!
1&!
1\
1]
1=!
1:
19
1c
1b
1a
0{
1'!
1Y
1Z
1[
18
17
16
1e
1d
1W
1X
15
14
1f
0^
1V
0U
13
02
#7500000
1!
1"
1#
1$
1%
1&
1'
1(
11
1L
1K
1J
1I
1H
1G
1F
1E
1D
1w
1g
1i
1k
1m
1o
1q
1s
1u
0,!
0.!
00!
02!
04!
06!
08!
0:!
0*!
1{
0%!
1z
0"!
0&!
1y
0~
0#!
1x
0(!
0)!
1<!
0=!
1;!
1&!
1~
1#!
0c
0a
0e
1^
0Y
0[
0W
1U
08
06
04
12
1c
1a
1e
1Y
1[
1W
18
16
14
#8000000
0!
0"
0#
0$
0%
0&
0'
0(
01
0)
0*
0+
0,
0-
0.
0/
00
0L
0K
0J
0I
0H
0G
0F
0E
0D
0T
0S
0R
0Q
0P
0O
0N
0M
0h
0j
0l
0n
0p
0r
0t
0v
0w
0g
0i
0k
0m
0o
0q
0s
0u
1,!
1.!
10!
12!
14!
16!
18!
1:!
1*!
1+!
1-!
1/!
11!
13!
15!
17!
19!
0{
0'!
0z
0$!
0&!
0y
0!!
0#!
0x
0|
0}
1(!
1)!
1=!
0~
0`
0_
0c
0b
0e
0d
0f
0^
0\
0]
0Y
0Z
0W
0X
0V
0U
0:
09
07
06
05
04
03
02
0a
0[
08
#8500000
1!
1"
1#
1$
1%
1&
1'
1(
11
1L
1K
1J
1I
1H
1G
1F
1E
1D
1w
1g
1i
1k
1m
1o
1q
1s
1u
0,!
0.!
00!
02!
04!
06!
08!
0:!
0*!
1%!
1'!
1"!
1$!
1~
1!!
1x
0(!
0<!
0;!
1&!
1y
0~
0!!
0)!
1b
1a
1d
1f
1z
0$!
0&!
1Z
1[
1X
1V
0=!
18
17
15
13
0b
0a
1e
1{
0'!
0Z
0[
1W
08
07
14
0e
0d
0W
0X
05
04
0f
1^
0V
1U
03
12
#9000000
0!
0"
0#
0$
0%
0&
0'
0(
01
1)
1*
1+
1,
1-
1.
1/
10
0L
0K
0J
0I
0H
0G
0F
0E
0D
1T
1S
1R
1Q
1P
1O
1N
1M
1h
1j
1l
1n
1p
1r
1t
1v
0w
0g
0i
0k
0m
0o
0q
0s
0u
1,!
1.!
10!
12!
14!
16!
18!
1:!
1*!
0+!
0-!
0/!
01!
03!
05!
07!
09!
0x
1|
1}
1(!
0y
1~
1!!
1#!
1)!
1`
1_
0z
1$!
1&!
1\
1]
1=!
1:
19
1c
1b
1a
0{
1'!
1Y
1Z
1[
18
17
16
1e
1d
1W
1X
15
14
1f
0^
1V
0U
13
02
#9500000
1!
1"
1#
1$
1%
1&
1'
1(
11
1L
1K
1J
1I
1H
1G
1F
1E
1D
1w
1g
1i
1k
1m
1o
1q
1s
1u
0,!
0.!
00!
02!
04!
06!
08!
0:!
0*!
1{
0%!
1z
0"!
0&!
1y
0~
0#!
1x
0(!
0)!
1<!
0=!
1;!
1&!
1~
1#!
0c
0a
0e
1^
0Y
0[
0W
1U
08
06
04
12
1c
1a
1e
1Y
1[
1W
18
16
14
#10000000
0!
0"
0#
0$
0%
0&
0'
0(
01
0)
0*
0+
0,
0-
0.
0/
00
0L
0K
0J
0I
0H
0G
0F
0E
0D
0T
0S
0R
0Q
0P
0O
0N
0M
0h
0j
0l
0n
0p
0r
0t
0v
0w
0g
0i
0k
0m
0o
0q
0s
0u
1,!
1.!
10!
12!
14!
16!
18!
1:!
1*!
1+!
1-!
1/!
11!
13!
15!
17!
19!
0{
0'!
0z
0$!
0&!
0y
0!!
0#!
0x
0|
0}
1(!
1)!
1=!
0~
0`
0_
0c
0b
0e
0d
0f
0^
0\
0]
0Y
0Z
0W
0X
0V
0U
0:
09
07
06
05
04
03
02
0a
0[
08
#10500000
1!
1"
1#
1$
1%
1&
1'
1(
11
1L
1K
1J
1I
1H
1G
1F
1E
1D
1w
1g
1i
1k
1m
1o
1q
1s
1u
0,!
0.!
00!
02!
04!
06!
08!
0:!
0*!
1%!
1'!
1"!
1$!
1~
1!!
1x
0(!
0<!
0;!
1&!
1y
0~
0!!
0)!
1b
1a
1d
1f
1z
0$!
0&!
1Z
1[
1X
1V
0=!
18
17
15
13
0b
0a
1e
1{
0'!
0Z
0[
1W
08
07
14
0e
0d
0W
0X
05
04
0f
1^
0V
1U
03
12
#11000000
0!
0"
0#
0$
0%
0&
0'
0(
01
1)
1*
1+
1,
1-
1.
1/
10
0L
0K
0J
0I
0H
0G
0F
0E
0D
1T
1S
1R
1Q
1P
1O
1N
1M
1h
1j
1l
1n
1p
1r
1t
1v
0w
0g
0i
0k
0m
0o
0q
0s
0u
1,!
1.!
10!
12!
14!
16!
18!
1:!
1*!
0+!
0-!
0/!
01!
03!
05!
07!
09!
0x
1|
1}
1(!
0y
1~
1!!
1#!
1)!
1`
1_
0z
1$!
1&!
1\
1]
1=!
1:
19
1c
1b
1a
0{
1'!
1Y
1Z
1[
18
17
16
1e
1d
1W
1X
15
14
1f
0^
1V
0U
13
02
#11500000
1!
1"
1#
1$
1%
1&
1'
1(
11
1L
1K
1J
1I
1H
1G
1F
1E
1D
1w
1g
1i
1k
1m
1o
1q
1s
1u
0,!
0.!
00!
02!
04!
06!
08!
0:!
0*!
1{
0%!
1z
0"!
0&!
1y
0~
0#!
1x
0(!
0)!
1<!
0=!
1;!
1&!
1~
1#!
0c
0a
0e
1^
0Y
0[
0W
1U
08
06
04
12
1c
1a
1e
1Y
1[
1W
18
16
14
#12000000
0!
0"
0#
0$
0%
0&
0'
0(
01
0)
0*
0+
0,
0-
0.
0/
00
0L
0K
0J
0I
0H
0G
0F
0E
0D
0T
0S
0R
0Q
0P
0O
0N
0M
0h
0j
0l
0n
0p
0r
0t
0v
0w
0g
0i
0k
0m
0o
0q
0s
0u
1,!
1.!
10!
12!
14!
16!
18!
1:!
1*!
1+!
1-!
1/!
11!
13!
15!
17!
19!
0{
0'!
0z
0$!
0&!
0y
0!!
0#!
0x
0|
0}
1(!
1)!
1=!
0~
0`
0_
0c
0b
0e
0d
0f
0^
0\
0]
0Y
0Z
0W
0X
0V
0U
0:
09
07
06
05
04
03
02
0a
0[
08
#12500000
1!
1"
1#
1$
1%
1&
1'
1(
11
1L
1K
1J
1I
1H
1G
1F
1E
1D
1w
1g
1i
1k
1m
1o
1q
1s
1u
0,!
0.!
00!
02!
04!
06!
08!
0:!
0*!
1%!
1'!
1"!
1$!
1~
1!!
1x
0(!
0<!
0;!
1&!
1y
0~
0!!
0)!
1b
1a
1d
1f
1z
0$!
0&!
1Z
1[
1X
1V
0=!
18
17
15
13
0b
0a
1e
1{
0'!
0Z
0[
1W
08
07
14
0e
0d
0W
0X
05
04
0f
1^
0V
1U
03
12
#13000000
0!
0"
0#
0$
0%
0&
0'
0(
01
1)
1*
1+
1,
1-
1.
1/
10
0L
0K
0J
0I
0H
0G
0F
0E
0D
1T
1S
1R
1Q
1P
1O
1N
1M
1h
1j
1l
1n
1p
1r
1t
1v
0w
0g
0i
0k
0m
0o
0q
0s
0u
1,!
1.!
10!
12!
14!
16!
18!
1:!
1*!
0+!
0-!
0/!
01!
03!
05!
07!
09!
0x
1|
1}
1(!
0y
1~
1!!
1#!
1)!
1`
1_
0z
1$!
1&!
1\
1]
1=!
1:
19
1c
1b
1a
0{
1'!
1Y
1Z
1[
18
17
16
1e
1d
1W
1X
15
14
1f
0^
1V
0U
13
02
#13500000
1!
1"
1#
1$
1%
1&
1'
1(
11
1L
1K
1J
1I
1H
1G
1F
1E
1D
1w
1g
1i
1k
1m
1o
1q
1s
1u
0,!
0.!
00!
02!
04!
06!
08!
0:!
0*!
1{
0%!
1z
0"!
0&!
1y
0~
0#!
1x
0(!
0)!
1<!
0=!
1;!
1&!
1~
1#!
0c
0a
0e
1^
0Y
0[
0W
1U
08
06
04
12
1c
1a
1e
1Y
1[
1W
18
16
14
#14000000
0!
0"
0#
0$
0%
0&
0'
0(
01
0)
0*
0+
0,
0-
0.
0/
00
0L
0K
0J
0I
0H
0G
0F
0E
0D
0T
0S
0R
0Q
0P
0O
0N
0M
0h
0j
0l
0n
0p
0r
0t
0v
0w
0g
0i
0k
0m
0o
0q
0s
0u
1,!
1.!
10!
12!
14!
16!
18!
1:!
1*!
1+!
1-!
1/!
11!
13!
15!
17!
19!
0{
0'!
0z
0$!
0&!
0y
0!!
0#!
0x
0|
0}
1(!
1)!
1=!
0~
0`
0_
0c
0b
0e
0d
0f
0^
0\
0]
0Y
0Z
0W
0X
0V
0U
0:
09
07
06
05
04
03
02
0a
0[
08
#14500000
1!
1"
1#
1$
1%
1&
1'
1(
11
1L
1K
1J
1I
1H
1G
1F
1E
1D
1w
1g
1i
1k
1m
1o
1q
1s
1u
0,!
0.!
00!
02!
04!
06!
08!
0:!
0*!
1%!
1'!
1"!
1$!
1~
1!!
1x
0(!
0<!
0;!
1&!
1y
0~
0!!
0)!
1b
1a
1d
1f
1z
0$!
0&!
1Z
1[
1X
1V
0=!
18
17
15
13
0b
0a
1e
1{
0'!
0Z
0[
1W
08
07
14
0e
0d
0W
0X
05
04
0f
1^
0V
1U
03
12
#15000000
0!
0"
0#
0$
0%
0&
0'
0(
01
1)
1*
1+
1,
1-
1.
1/
10
0L
0K
0J
0I
0H
0G
0F
0E
0D
1T
1S
1R
1Q
1P
1O
1N
1M
1h
1j
1l
1n
1p
1r
1t
1v
0w
0g
0i
0k
0m
0o
0q
0s
0u
1,!
1.!
10!
12!
14!
16!
18!
1:!
1*!
0+!
0-!
0/!
01!
03!
05!
07!
09!
0x
1|
1}
1(!
0y
1~
1!!
1#!
1)!
1`
1_
0z
1$!
1&!
1\
1]
1=!
1:
19
1c
1b
1a
0{
1'!
1Y
1Z
1[
18
17
16
1e
1d
1W
1X
15
14
1f
0^
1V
0U
13
02
#15500000
1!
1"
1#
1$
1%
1&
1'
1(
11
1L
1K
1J
1I
1H
1G
1F
1E
1D
1w
1g
1i
1k
1m
1o
1q
1s
1u
0,!
0.!
00!
02!
04!
06!
08!
0:!
0*!
1{
0%!
1z
0"!
0&!
1y
0~
0#!
1x
0(!
0)!
1<!
0=!
1;!
1&!
1~
1#!
0c
0a
0e
1^
0Y
0[
0W
1U
08
06
04
12
1c
1a
1e
1Y
1[
1W
18
16
14
