Componente 11/simulation/qsim/extensor.msim.vcd
$comment
	File created using the following command:
		vcd file extensor.msim.vcd -direction
$end
$date
	Tue Dec 05 23:40:38 2017
$end
$version
	ModelSim Version 10.5b
$end
$timescale
	1ps
$end

$scope module extensor_vhd_vec_tst $end
$var wire 1 ! a [3] $end
$var wire 1 " a [2] $end
$var wire 1 # a [1] $end
$var wire 1 $ a [0] $end
$var wire 1 % s [7] $end
$var wire 1 & s [6] $end
$var wire 1 ' s [5] $end
$var wire 1 ( s [4] $end
$var wire 1 ) s [3] $end
$var wire 1 * s [2] $end
$var wire 1 + s [1] $end
$var wire 1 , s [0] $end

$scope module i1 $end
$var wire 1 - gnd $end
$var wire 1 . vcc $end
$var wire 1 / unknown $end
$var wire 1 0 devoe $end
$var wire 1 1 devclrn $end
$var wire 1 2 devpor $end
$var wire 1 3 ww_devoe $end
$var wire 1 4 ww_devclrn $end
$var wire 1 5 ww_devpor $end
$var wire 1 6 ww_a [3] $end
$var wire 1 7 ww_a [2] $end
$var wire 1 8 ww_a [1] $end
$var wire 1 9 ww_a [0] $end
$var wire 1 : ww_s [7] $end
$var wire 1 ; ww_s [6] $end
$var wire 1 < ww_s [5] $end
$var wire 1 = ww_s [4] $end
$var wire 1 > ww_s [3] $end
$var wire 1 ? ww_s [2] $end
$var wire 1 @ ww_s [1] $end
$var wire 1 A ww_s [0] $end
$var wire 1 B \s[0]~output_o\ $end
$var wire 1 C \s[1]~output_o\ $end
$var wire 1 D \s[2]~output_o\ $end
$var wire 1 E \s[3]~output_o\ $end
$var wire 1 F \s[4]~output_o\ $end
$var wire 1 G \s[5]~output_o\ $end
$var wire 1 H \s[6]~output_o\ $end
$var wire 1 I \s[7]~output_o\ $end
$var wire 1 J \a[0]~input_o\ $end
$var wire 1 K \a[1]~input_o\ $end
$var wire 1 L \a[2]~input_o\ $end
$var wire 1 M \a[3]~input_o\ $end
$upscope $end
$upscope $end
$enddefinitions $end
#0
$dumpvars
0-
1.
x/
10
11
12
13
14
15
0B
0C
0D
0E
0F
0G
0H
0I
0J
0K
0L
0M
0!
0"
0#
0$
06
07
08
09
0:
0;
0<
0=
0>
0?
0@
0A
0%
0&
0'
0(
0)
0*
0+
0,
$end
#1000000
1!
1"
1#
1$
19
18
17
16
1M
1L
1K
1J
1B
1C
1D
1E
1A
1@
1?
1>
1,
1+
1*
1)
#2000000
0!
0"
0#
0$
09
08
07
06
0M
0L
0K
0J
0B
0C
0D
0E
0A
0@
0?
0>
0,
0+
0*
0)
#3000000
1!
1"
1#
1$
19
18
17
16
1M
1L
1K
1J
1B
1C
1D
1E
1A
1@
1?
1>
1,
1+
1*
1)
#4000000
0!
0"
0#
0$
09
08
07
06
0M
0L
0K
0J
0B
0C
0D
0E
0A
0@
0?
0>
0,
0+
0*
0)
#5000000
1!
1"
1#
1$
19
18
17
16
1M
1L
1K
1J
1B
1C
1D
1E
1A
1@
1?
1>
1,
1+
1*
1)
#6000000
0!
0"
0#
0$
09
08
07
06
0M
0L
0K
0J
0B
0C
0D
0E
0A
0@
0?
0>
0,
0+
0*
0)
#7000000
1!
1"
1#
1$
19
18
17
16
1M
1L
1K
1J
1B
1C
1D
1E
1A
1@
1?
1>
1,
1+
1*
1)
#8000000
0!
0"
0#
0$
09
08
07
06
0M
0L
0K
0J
0B
0C
0D
0E
0A
0@
0?
0>
0,
0+
0*
0)
#9000000
1!
1"
1#
1$
19
18
17
16
1M
1L
1K
1J
1B
1C
1D
1E
1A
1@
1?
1>
1,
1+
1*
1)
#10000000
0!
0"
0#
0$
09
08
07
06
0M
0L
0K
0J
0B
0C
0D
0E
0A
0@
0?
0>
0,
0+
0*
0)
#11000000
1!
1"
1#
1$
19
18
17
16
1M
1L
1K
1J
1B
1C
1D
1E
1A
1@
1?
1>
1,
1+
1*
1)
#12000000
0!
0"
0#
0$
09
08
07
06
0M
0L
0K
0J
0B
0C
0D
0E
0A
0@
0?
0>
0,
0+
0*
0)
#13000000
1!
1"
1#
1$
19
18
17
16
1M
1L
1K
1J
1B
1C
1D
1E
1A
1@
1?
1>
1,
1+
1*
1)
#14000000
0!
0"
0#
0$
09
08
07
06
0M
0L
0K
0J
0B
0C
0D
0E
0A
0@
0?
0>
0,
0+
0*
0)
#15000000
1!
1"
1#
1$
19
18
17
16
1M
1L
1K
1J
1B
1C
1D
1E
1A
1@
1?
1>
1,
1+
1*
1)
