Componente 10/ULA/simulation/qsim/ula.msim.vcd
$comment
	File created using the following command:
		vcd file ula.msim.vcd -direction
$end
$date
	Tue Dec 05 23:34:35 2017
$end
$version
	ModelSim Version 10.5b
$end
$timescale
	1ps
$end

$scope module ula_vhd_vec_tst $end
$var wire 1 ! entradaA [7] $end
$var wire 1 " entradaA [6] $end
$var wire 1 # entradaA [5] $end
$var wire 1 $ entradaA [4] $end
$var wire 1 % entradaA [3] $end
$var wire 1 & entradaA [2] $end
$var wire 1 ' entradaA [1] $end
$var wire 1 ( entradaA [0] $end
$var wire 1 ) entradaB [7] $end
$var wire 1 * entradaB [6] $end
$var wire 1 + entradaB [5] $end
$var wire 1 , entradaB [4] $end
$var wire 1 - entradaB [3] $end
$var wire 1 . entradaB [2] $end
$var wire 1 / entradaB [1] $end
$var wire 1 0 entradaB [0] $end
$var wire 1 1 Operacao [2] $end
$var wire 1 2 Operacao [1] $end
$var wire 1 3 Operacao [0] $end
$var wire 1 4 saida [7] $end
$var wire 1 5 saida [6] $end
$var wire 1 6 saida [5] $end
$var wire 1 7 saida [4] $end
$var wire 1 8 saida [3] $end
$var wire 1 9 saida [2] $end
$var wire 1 : saida [1] $end
$var wire 1 ; saida [0] $end
$var wire 1 < zero $end

$scope module i1 $end
$var wire 1 = gnd $end
$var wire 1 > vcc $end
$var wire 1 ? unknown $end
$var wire 1 @ devoe $end
$var wire 1 A devclrn $end
$var wire 1 B devpor $end
$var wire 1 C ww_devoe $end
$var wire 1 D ww_devclrn $end
$var wire 1 E ww_devpor $end
$var wire 1 F ww_entradaA [7] $end
$var wire 1 G ww_entradaA [6] $end
$var wire 1 H ww_entradaA [5] $end
$var wire 1 I ww_entradaA [4] $end
$var wire 1 J ww_entradaA [3] $end
$var wire 1 K ww_entradaA [2] $end
$var wire 1 L ww_entradaA [1] $end
$var wire 1 M ww_entradaA [0] $end
$var wire 1 N ww_entradaB [7] $end
$var wire 1 O ww_entradaB [6] $end
$var wire 1 P ww_entradaB [5] $end
$var wire 1 Q ww_entradaB [4] $end
$var wire 1 R ww_entradaB [3] $end
$var wire 1 S ww_entradaB [2] $end
$var wire 1 T ww_entradaB [1] $end
$var wire 1 U ww_entradaB [0] $end
$var wire 1 V ww_Operacao [2] $end
$var wire 1 W ww_Operacao [1] $end
$var wire 1 X ww_Operacao [0] $end
$var wire 1 Y ww_saida [7] $end
$var wire 1 Z ww_saida [6] $end
$var wire 1 [ ww_saida [5] $end
$var wire 1 \ ww_saida [4] $end
$var wire 1 ] ww_saida [3] $end
$var wire 1 ^ ww_saida [2] $end
$var wire 1 _ ww_saida [1] $end
$var wire 1 ` ww_saida [0] $end
$var wire 1 a ww_zero $end
$var wire 1 b \saida[0]~output_o\ $end
$var wire 1 c \saida[1]~output_o\ $end
$var wire 1 d \saida[2]~output_o\ $end
$var wire 1 e \saida[3]~output_o\ $end
$var wire 1 f \saida[4]~output_o\ $end
$var wire 1 g \saida[5]~output_o\ $end
$var wire 1 h \saida[6]~output_o\ $end
$var wire 1 i \saida[7]~output_o\ $end
$var wire 1 j \zero~output_o\ $end
$var wire 1 k \Operacao[0]~input_o\ $end
$var wire 1 l \Operacao[2]~input_o\ $end
$var wire 1 m \entradaB[0]~input_o\ $end
$var wire 1 n \entradaA[0]~input_o\ $end
$var wire 1 o \somadorSubtrator|Add1~34_cout\ $end
$var wire 1 p \somadorSubtrator|Add1~1_sumout\ $end
$var wire 1 q \entradaA[5]~input_o\ $end
$var wire 1 r \entradaB[5]~input_o\ $end
$var wire 1 s \entradaA[7]~input_o\ $end
$var wire 1 t \entradaB[7]~input_o\ $end
$var wire 1 u \entradaA[6]~input_o\ $end
$var wire 1 v \entradaB[6]~input_o\ $end
$var wire 1 w \LessThan0~0_combout\ $end
$var wire 1 x \entradaA[4]~input_o\ $end
$var wire 1 y \entradaB[4]~input_o\ $end
$var wire 1 z \LessThan0~7_combout\ $end
$var wire 1 { \LessThan0~8_combout\ $end
$var wire 1 | \Operacao[1]~input_o\ $end
$var wire 1 } \LessThan0~1_combout\ $end
$var wire 1 ~ \LessThan0~2_combout\ $end
$var wire 1 !! \entradaA[1]~input_o\ $end
$var wire 1 "! \entradaB[1]~input_o\ $end
$var wire 1 #! \LessThan0~3_combout\ $end
$var wire 1 $! \entradaA[3]~input_o\ $end
$var wire 1 %! \entradaB[3]~input_o\ $end
$var wire 1 &! \entradaA[2]~input_o\ $end
$var wire 1 '! \entradaB[2]~input_o\ $end
$var wire 1 (! \LessThan0~4_combout\ $end
$var wire 1 )! \LessThan0~5_combout\ $end
$var wire 1 *! \LessThan0~6_combout\ $end
$var wire 1 +! \saidaSignal~0_combout\ $end
$var wire 1 ,! \saidaSignal~8_combout\ $end
$var wire 1 -! \somadorSubtrator|Add1~2\ $end
$var wire 1 .! \somadorSubtrator|Add1~5_sumout\ $end
$var wire 1 /! \saidaSignal~1_combout\ $end
$var wire 1 0! \somadorSubtrator|Add1~6\ $end
$var wire 1 1! \somadorSubtrator|Add1~9_sumout\ $end
$var wire 1 2! \saidaSignal~2_combout\ $end
$var wire 1 3! \somadorSubtrator|Add1~10\ $end
$var wire 1 4! \somadorSubtrator|Add1~13_sumout\ $end
$var wire 1 5! \saidaSignal~3_combout\ $end
$var wire 1 6! \somadorSubtrator|Add1~14\ $end
$var wire 1 7! \somadorSubtrator|Add1~17_sumout\ $end
$var wire 1 8! \saidaSignal~4_combout\ $end
$var wire 1 9! \somadorSubtrator|Add1~18\ $end
$var wire 1 :! \somadorSubtrator|Add1~21_sumout\ $end
$var wire 1 ;! \saidaSignal~5_combout\ $end
$var wire 1 <! \somadorSubtrator|Add1~22\ $end
$var wire 1 =! \somadorSubtrator|Add1~25_sumout\ $end
$var wire 1 >! \saidaSignal~6_combout\ $end
$var wire 1 ?! \somadorSubtrator|Add1~26\ $end
$var wire 1 @! \somadorSubtrator|Add1~29_sumout\ $end
$var wire 1 A! \saidaSignal~7_combout\ $end
$var wire 1 B! \ALT_INV_entradaB[2]~input_o\ $end
$var wire 1 C! \ALT_INV_entradaA[2]~input_o\ $end
$var wire 1 D! \ALT_INV_entradaB[3]~input_o\ $end
$var wire 1 E! \ALT_INV_entradaA[3]~input_o\ $end
$var wire 1 F! \ALT_INV_entradaB[0]~input_o\ $end
$var wire 1 G! \ALT_INV_entradaA[0]~input_o\ $end
$var wire 1 H! \ALT_INV_entradaB[1]~input_o\ $end
$var wire 1 I! \ALT_INV_entradaA[1]~input_o\ $end
$var wire 1 J! \ALT_INV_entradaB[4]~input_o\ $end
$var wire 1 K! \ALT_INV_entradaA[4]~input_o\ $end
$var wire 1 L! \ALT_INV_entradaB[5]~input_o\ $end
$var wire 1 M! \ALT_INV_entradaA[5]~input_o\ $end
$var wire 1 N! \ALT_INV_entradaB[6]~input_o\ $end
$var wire 1 O! \ALT_INV_entradaA[6]~input_o\ $end
$var wire 1 P! \ALT_INV_entradaB[7]~input_o\ $end
$var wire 1 Q! \ALT_INV_entradaA[7]~input_o\ $end
$var wire 1 R! \ALT_INV_Operacao[2]~input_o\ $end
$var wire 1 S! \ALT_INV_Operacao[0]~input_o\ $end
$var wire 1 T! \ALT_INV_Operacao[1]~input_o\ $end
$var wire 1 U! \ALT_INV_saidaSignal~0_combout\ $end
$var wire 1 V! \ALT_INV_LessThan0~8_combout\ $end
$var wire 1 W! \ALT_INV_LessThan0~7_combout\ $end
$var wire 1 X! \ALT_INV_LessThan0~6_combout\ $end
$var wire 1 Y! \ALT_INV_LessThan0~5_combout\ $end
$var wire 1 Z! \ALT_INV_LessThan0~4_combout\ $end
$var wire 1 [! \ALT_INV_LessThan0~3_combout\ $end
$var wire 1 \! \ALT_INV_LessThan0~2_combout\ $end
$var wire 1 ]! \ALT_INV_LessThan0~1_combout\ $end
$var wire 1 ^! \ALT_INV_LessThan0~0_combout\ $end
$var wire 1 _! \somadorSubtrator|ALT_INV_Add1~29_sumout\ $end
$var wire 1 `! \somadorSubtrator|ALT_INV_Add1~25_sumout\ $end
$var wire 1 a! \somadorSubtrator|ALT_INV_Add1~21_sumout\ $end
$var wire 1 b! \somadorSubtrator|ALT_INV_Add1~17_sumout\ $end
$var wire 1 c! \somadorSubtrator|ALT_INV_Add1~13_sumout\ $end
$var wire 1 d! \somadorSubtrator|ALT_INV_Add1~9_sumout\ $end
$var wire 1 e! \somadorSubtrator|ALT_INV_Add1~5_sumout\ $end
$var wire 1 f! \somadorSubtrator|ALT_INV_Add1~1_sumout\ $end
$upscope $end
$upscope $end
$enddefinitions $end
#0
$dumpvars
0<
0=
1>
x?
1@
1A
1B
1C
1D
1E
0a
0b
0c
0d
0e
0f
0g
0h
0i
0j
0k
0l
0m
0n
0o
0p
0q
0r
0s
0t
0u
0v
1w
0x
0y
0z
0{
0|
0}
0~
0!!
0"!
0#!
0$!
0%!
0&!
0'!
1(!
0)!
0*!
0+!
0,!
0-!
0.!
0/!
00!
01!
02!
03!
04!
05!
06!
07!
08!
09!
0:!
0;!
0<!
0=!
0>!
0?!
0@!
0A!
1B!
1C!
1D!
1E!
1F!
1G!
1H!
1I!
1J!
1K!
1L!
1M!
1N!
1O!
1P!
1Q!
1R!
1S!
1T!
1U!
1V!
1W!
1X!
1Y!
0Z!
1[!
1\!
1]!
0^!
1_!
1`!
1a!
1b!
1c!
1d!
1e!
1f!
0!
0"
0#
0$
0%
0&
0'
0(
0)
0*
0+
0,
0-
0.
0/
00
01
02
03
0F
0G
0H
0I
0J
0K
0L
0M
0N
0O
0P
0Q
0R
0S
0T
0U
0V
0W
0X
0Y
0Z
0[
0\
0]
0^
0_
0`
04
05
06
07
08
09
0:
0;
$end
#500000
1!
1"
1#
1$
1%
1&
1'
1(
11
12
13
1M
1L
1K
1J
1I
1H
1G
1F
1X
1W
1V
1l
1|
1k
1s
1u
1q
1x
1$!
1&!
1!!
1n
0G!
0I!
0C!
0E!
0K!
0M!
0O!
0Q!
0S!
0T!
0R!
1o
0w
1z
1?!
1}
1<!
1~
19!
16!
0(!
13!
10!
1-!
1+!
0U!
1Z!
0\!
0]!
0W!
1^!
1.!
11!
14!
17!
1:!
1=!
1@!
1p
1{
0f!
0_!
0`!
0a!
0b!
0c!
0d!
0e!
0V!
1,!
1b
1`
1;
#999000
0!
0"
0#
0$
0%
0&
0'
0(
0M
0L
0K
0J
0I
0H
0G
0F
0s
0u
0q
0x
0$!
0&!
0!!
0n
1G!
1I!
1C!
1E!
1K!
1M!
1O!
1Q!
0@!
1w
0z
0=!
0}
0:!
0~
07!
04!
1(!
01!
0.!
0p
0+!
1U!
1f!
1e!
1d!
0Z!
1c!
1b!
1\!
1a!
1]!
1`!
1W!
0^!
1_!
0{
1V!
0,!
0b
0`
0;
#1000000
01
02
03
0X
0W
0V
0l
0|
0k
1S!
1T!
1R!
0o
1p
0-!
1.!
00!
11!
03!
14!
06!
17!
09!
1:!
0<!
1=!
0?!
1@!
0_!
0`!
0a!
0b!
0c!
0d!
0e!
0f!
0@!
0=!
0:!
07!
04!
01!
0.!
0p
1f!
1e!
1d!
1c!
1b!
1a!
1`!
1_!
#1500000
11
12
13
1X
1W
1V
1l
1|
1k
0S!
0T!
0R!
1o
1p
1.!
11!
14!
17!
1:!
1=!
1@!
0_!
0`!
0a!
0b!
0c!
0d!
0e!
0f!
0p
1-!
1f!
0.!
10!
1e!
01!
13!
1d!
04!
16!
1c!
07!
19!
1b!
0:!
1<!
1a!
0=!
1?!
1`!
0@!
1_!
#2000000
01
02
03
0X
0W
0V
0l
0|
0k
1S!
1T!
1R!
0o
1p
0-!
1.!
00!
11!
03!
14!
06!
17!
09!
1:!
0<!
1=!
0?!
1@!
0_!
0`!
0a!
0b!
0c!
0d!
0e!
0f!
0@!
0=!
0:!
07!
04!
01!
0.!
0p
1f!
1e!
1d!
1c!
1b!
1a!
1`!
1_!
#2500000
11
12
13
1X
1W
1V
1l
1|
1k
0S!
0T!
0R!
1o
1p
1.!
11!
14!
17!
1:!
1=!
1@!
0_!
0`!
0a!
0b!
0c!
0d!
0e!
0f!
0p
1-!
1f!
0.!
10!
1e!
01!
13!
1d!
04!
16!
1c!
07!
19!
1b!
0:!
1<!
1a!
0=!
1?!
1`!
0@!
1_!
#3000000
01
02
03
0X
0W
0V
0l
0|
0k
1S!
1T!
1R!
0o
1p
0-!
1.!
00!
11!
03!
14!
06!
17!
09!
1:!
0<!
1=!
0?!
1@!
0_!
0`!
0a!
0b!
0c!
0d!
0e!
0f!
0@!
0=!
0:!
07!
04!
01!
0.!
0p
1f!
1e!
1d!
1c!
1b!
1a!
1`!
1_!
#3500000
11
12
13
1X
1W
1V
1l
1|
1k
0S!
0T!
0R!
1o
1p
1.!
11!
14!
17!
1:!
1=!
1@!
0_!
0`!
0a!
0b!
0c!
0d!
0e!
0f!
0p
1-!
1f!
0.!
10!
1e!
01!
13!
1d!
04!
16!
1c!
07!
19!
1b!
0:!
1<!
1a!
0=!
1?!
1`!
0@!
1_!
#4000000
01
02
03
0X
0W
0V
0l
0|
0k
1S!
1T!
1R!
0o
1p
0-!
1.!
00!
11!
03!
14!
06!
17!
09!
1:!
0<!
1=!
0?!
1@!
0_!
0`!
0a!
0b!
0c!
0d!
0e!
0f!
0@!
0=!
0:!
07!
04!
01!
0.!
0p
1f!
1e!
1d!
1c!
1b!
1a!
1`!
1_!
#4500000
11
12
13
1X
1W
1V
1l
1|
1k
0S!
0T!
0R!
1o
1p
1.!
11!
14!
17!
1:!
1=!
1@!
0_!
0`!
0a!
0b!
0c!
0d!
0e!
0f!
0p
1-!
1f!
0.!
10!
1e!
01!
13!
1d!
04!
16!
1c!
07!
19!
1b!
0:!
1<!
1a!
0=!
1?!
1`!
0@!
1_!
#5000000
01
02
03
0X
0W
0V
0l
0|
0k
1S!
1T!
1R!
0o
1p
0-!
1.!
00!
11!
03!
14!
06!
17!
09!
1:!
0<!
1=!
0?!
1@!
0_!
0`!
0a!
0b!
0c!
0d!
0e!
0f!
0@!
0=!
0:!
07!
04!
01!
0.!
0p
1f!
1e!
1d!
1c!
1b!
1a!
1`!
1_!
#5500000
11
12
13
1X
1W
1V
1l
1|
1k
0S!
0T!
0R!
1o
1p
1.!
11!
14!
17!
1:!
1=!
1@!
0_!
0`!
0a!
0b!
0c!
0d!
0e!
0f!
0p
1-!
1f!
0.!
10!
1e!
01!
13!
1d!
04!
16!
1c!
07!
19!
1b!
0:!
1<!
1a!
0=!
1?!
1`!
0@!
1_!
#6000000
01
02
03
0X
0W
0V
0l
0|
0k
1S!
1T!
1R!
0o
1p
0-!
1.!
00!
11!
03!
14!
06!
17!
09!
1:!
0<!
1=!
0?!
1@!
0_!
0`!
0a!
0b!
0c!
0d!
0e!
0f!
0@!
0=!
0:!
07!
04!
01!
0.!
0p
1f!
1e!
1d!
1c!
1b!
1a!
1`!
1_!
#6500000
11
12
13
1X
1W
1V
1l
1|
1k
0S!
0T!
0R!
1o
1p
1.!
11!
14!
17!
1:!
1=!
1@!
0_!
0`!
0a!
0b!
0c!
0d!
0e!
0f!
0p
1-!
1f!
0.!
10!
1e!
01!
13!
1d!
04!
16!
1c!
07!
19!
1b!
0:!
1<!
1a!
0=!
1?!
1`!
0@!
1_!
#7000000
01
02
03
0X
0W
0V
0l
0|
0k
1S!
1T!
1R!
0o
1p
0-!
1.!
00!
11!
03!
14!
06!
17!
09!
1:!
0<!
1=!
0?!
1@!
0_!
0`!
0a!
0b!
0c!
0d!
0e!
0f!
0@!
0=!
0:!
07!
04!
01!
0.!
0p
1f!
1e!
1d!
1c!
1b!
1a!
1`!
1_!
#7500000
11
12
13
1X
1W
1V
1l
1|
1k
0S!
0T!
0R!
1o
1p
1.!
11!
14!
17!
1:!
1=!
1@!
0_!
0`!
0a!
0b!
0c!
0d!
0e!
0f!
0p
1-!
1f!
0.!
10!
1e!
01!
13!
1d!
04!
16!
1c!
07!
19!
1b!
0:!
1<!
1a!
0=!
1?!
1`!
0@!
1_!
#8000000
01
02
03
0X
0W
0V
0l
0|
0k
1S!
1T!
1R!
0o
1p
0-!
1.!
00!
11!
03!
14!
06!
17!
09!
1:!
0<!
1=!
0?!
1@!
0_!
0`!
0a!
0b!
0c!
0d!
0e!
0f!
0@!
0=!
0:!
07!
04!
01!
0.!
0p
1f!
1e!
1d!
1c!
1b!
1a!
1`!
1_!
#8500000
11
12
13
1X
1W
1V
1l
1|
1k
0S!
0T!
0R!
1o
1p
1.!
11!
14!
17!
1:!
1=!
1@!
0_!
0`!
0a!
0b!
0c!
0d!
0e!
0f!
0p
1-!
1f!
0.!
10!
1e!
01!
13!
1d!
04!
16!
1c!
07!
19!
1b!
0:!
1<!
1a!
0=!
1?!
1`!
0@!
1_!
#9000000
01
02
03
0X
0W
0V
0l
0|
0k
1S!
1T!
1R!
0o
1p
0-!
1.!
00!
11!
03!
14!
06!
17!
09!
1:!
0<!
1=!
0?!
1@!
0_!
0`!
0a!
0b!
0c!
0d!
0e!
0f!
0@!
0=!
0:!
07!
04!
01!
0.!
0p
1f!
1e!
1d!
1c!
1b!
1a!
1`!
1_!
#9500000
11
12
13
1X
1W
1V
1l
1|
1k
0S!
0T!
0R!
1o
1p
1.!
11!
14!
17!
1:!
1=!
1@!
0_!
0`!
0a!
0b!
0c!
0d!
0e!
0f!
0p
1-!
1f!
0.!
10!
1e!
01!
13!
1d!
04!
16!
1c!
07!
19!
1b!
0:!
1<!
1a!
0=!
1?!
1`!
0@!
1_!
#10000000
01
02
03
0X
0W
0V
0l
0|
0k
1S!
1T!
1R!
0o
1p
0-!
1.!
00!
11!
03!
14!
06!
17!
09!
1:!
0<!
1=!
0?!
1@!
0_!
0`!
0a!
0b!
0c!
0d!
0e!
0f!
0@!
0=!
0:!
07!
04!
01!
0.!
0p
1f!
1e!
1d!
1c!
1b!
1a!
1`!
1_!
#10500000
11
12
13
1X
1W
1V
1l
1|
1k
0S!
0T!
0R!
1o
1p
1.!
11!
14!
17!
1:!
1=!
1@!
0_!
0`!
0a!
0b!
0c!
0d!
0e!
0f!
0p
1-!
1f!
0.!
10!
1e!
01!
13!
1d!
04!
16!
1c!
07!
19!
1b!
0:!
1<!
1a!
0=!
1?!
1`!
0@!
1_!
#11000000
01
02
03
0X
0W
0V
0l
0|
0k
1S!
1T!
1R!
0o
1p
0-!
1.!
00!
11!
03!
14!
06!
17!
09!
1:!
0<!
1=!
0?!
1@!
0_!
0`!
0a!
0b!
0c!
0d!
0e!
0f!
0@!
0=!
0:!
07!
04!
01!
0.!
0p
1f!
1e!
1d!
1c!
1b!
1a!
1`!
1_!
#11500000
11
12
13
1X
1W
1V
1l
1|
1k
0S!
0T!
0R!
1o
1p
1.!
11!
14!
17!
1:!
1=!
1@!
0_!
0`!
0a!
0b!
0c!
0d!
0e!
0f!
0p
1-!
1f!
0.!
10!
1e!
01!
13!
1d!
04!
16!
1c!
07!
19!
1b!
0:!
1<!
1a!
0=!
1?!
1`!
0@!
1_!
#12000000
01
02
03
0X
0W
0V
0l
0|
0k
1S!
1T!
1R!
0o
1p
0-!
1.!
00!
11!
03!
14!
06!
17!
09!
1:!
0<!
1=!
0?!
1@!
0_!
0`!
0a!
0b!
0c!
0d!
0e!
0f!
0@!
0=!
0:!
07!
04!
01!
0.!
0p
1f!
1e!
1d!
1c!
1b!
1a!
1`!
1_!
#12500000
11
12
13
1X
1W
1V
1l
1|
1k
0S!
0T!
0R!
1o
1p
1.!
11!
14!
17!
1:!
1=!
1@!
0_!
0`!
0a!
0b!
0c!
0d!
0e!
0f!
0p
1-!
1f!
0.!
10!
1e!
01!
13!
1d!
04!
16!
1c!
07!
19!
1b!
0:!
1<!
1a!
0=!
1?!
1`!
0@!
1_!
#13000000
01
02
03
0X
0W
0V
0l
0|
0k
1S!
1T!
1R!
0o
1p
0-!
1.!
00!
11!
03!
14!
06!
17!
09!
1:!
0<!
1=!
0?!
1@!
0_!
0`!
0a!
0b!
0c!
0d!
0e!
0f!
0@!
0=!
0:!
07!
04!
01!
0.!
0p
1f!
1e!
1d!
1c!
1b!
1a!
1`!
1_!
#13500000
11
12
13
1X
1W
1V
1l
1|
1k
0S!
0T!
0R!
1o
1p
1.!
11!
14!
17!
1:!
1=!
1@!
0_!
0`!
0a!
0b!
0c!
0d!
0e!
0f!
0p
1-!
1f!
0.!
10!
1e!
01!
13!
1d!
04!
16!
1c!
07!
19!
1b!
0:!
1<!
1a!
0=!
1?!
1`!
0@!
1_!
#14000000
01
02
03
0X
0W
0V
0l
0|
0k
1S!
1T!
1R!
0o
1p
0-!
1.!
00!
11!
03!
14!
06!
17!
09!
1:!
0<!
1=!
0?!
1@!
0_!
0`!
0a!
0b!
0c!
0d!
0e!
0f!
0@!
0=!
0:!
07!
04!
01!
0.!
0p
1f!
1e!
1d!
1c!
1b!
1a!
1`!
1_!
#14500000
11
12
13
1X
1W
1V
1l
1|
1k
0S!
0T!
0R!
1o
1p
1.!
11!
14!
17!
1:!
1=!
1@!
0_!
0`!
0a!
0b!
0c!
0d!
0e!
0f!
0p
1-!
1f!
0.!
10!
1e!
01!
13!
1d!
04!
16!
1c!
07!
19!
1b!
0:!
1<!
1a!
0=!
1?!
1`!
0@!
1_!
#15000000
01
02
03
0X
0W
0V
0l
0|
0k
1S!
1T!
1R!
0o
1p
0-!
1.!
00!
11!
03!
14!
06!
17!
09!
1:!
0<!
1=!
0?!
1@!
0_!
0`!
0a!
0b!
0c!
0d!
0e!
0f!
0@!
0=!
0:!
07!
04!
01!
0.!
0p
1f!
1e!
1d!
1c!
1b!
1a!
1`!
1_!
#15500000
11
12
13
1X
1W
1V
1l
1|
1k
0S!
0T!
0R!
1o
1p
1.!
11!
14!
17!
1:!
1=!
1@!
0_!
0`!
0a!
0b!
0c!
0d!
0e!
0f!
0p
1-!
1f!
0.!
10!
1e!
01!
13!
1d!
04!
16!
1c!
07!
19!
1b!
0:!
1<!
1a!
0=!
1?!
1`!
0@!
1_!
