Componente 1/D_FF/simulation/qsim/D_FF.msim.vcd
$comment
	File created using the following command:
		vcd file D_FF.msim.vcd -direction
$end
$date
	Tue Dec 05 18:27:17 2017
$end
$version
	ModelSim Version 10.5b
$end
$timescale
	1ps
$end

$scope module d_ff_vhd_vec_tst $end
$var wire 1 ! CLOCK $end
$var wire 1 " D $end
$var wire 1 # Q $end

$scope module i1 $end
$var wire 1 $ gnd $end
$var wire 1 % vcc $end
$var wire 1 & unknown $end
$var wire 1 ' devoe $end
$var wire 1 ( devclrn $end
$var wire 1 ) devpor $end
$var wire 1 * ww_devoe $end
$var wire 1 + ww_devclrn $end
$var wire 1 , ww_devpor $end
$var wire 1 - ww_D $end
$var wire 1 . ww_CLOCK $end
$var wire 1 / ww_Q $end
$var wire 1 0 \Q~output_o\ $end
$var wire 1 1 \CLOCK~input_o\ $end
$var wire 1 2 \D~input_o\ $end
$var wire 1 3 \Q~reg0_q\ $end
$upscope $end
$upscope $end
$enddefinitions $end
#0
$dumpvars
0!
0"
0#
0$
1%
x&
1'
1(
1)
1*
1+
1,
0-
0.
0/
00
01
02
03
$end
#500000
1!
1.
11
#1000000
0!
1"
0.
1-
12
01
#1500000
1!
1.
11
13
10
1/
1#
#2000000
0!
0"
0.
0-
02
01
#2500000
1!
1.
11
03
00
0/
0#
#3000000
0!
1"
0.
1-
12
01
#3500000
1!
1.
11
13
10
1/
1#
#4000000
0!
0"
0.
0-
02
01
#4500000
1!
1.
11
03
00
0/
0#
#5000000
0!
1"
0.
1-
12
01
#5500000
1!
1.
11
13
10
1/
1#
#6000000
0!
0"
0.
0-
02
01
#6500000
1!
1.
11
03
00
0/
0#
#7000000
0!
1"
0.
1-
12
01
#7500000
1!
1.
11
13
10
1/
1#
#8000000
0!
0"
0.
0-
02
01
#8500000
1!
1.
11
03
00
0/
0#
#9000000
0!
1"
0.
1-
12
01
#9500000
1!
1.
11
13
10
1/
1#
#10000000
0!
0"
0.
0-
02
01
#10500000
1!
1.
11
03
00
0/
0#
#11000000
0!
1"
0.
1-
12
01
#11500000
1!
1.
11
13
10
1/
1#
#12000000
0!
0"
0.
0-
02
01
#12500000
1!
1.
11
03
00
0/
0#
#13000000
0!
1"
0.
1-
12
01
#13500000
1!
1.
11
13
10
1/
1#
#14000000
0!
0"
0.
0-
02
01
#14500000
1!
1.
11
03
00
0/
0#
#15000000
0!
1"
0.
1-
12
01
#15500000
1!
1.
11
13
10
1/
1#
