Componente 13/Contador/simulation/qsim/contadorSincrono.msim.vcd
$comment
	File created using the following command:
		vcd file contadorSincrono.msim.vcd -direction
$end
$date
	Tue Dec 05 23:51:45 2017
$end
$version
	ModelSim Version 10.5b
$end
$timescale
	1ps
$end

$scope module contadorsincrono_vhd_vec_tst $end
$var wire 1 ! clock $end
$var wire 1 " enable $end
$var wire 1 # q [3] $end
$var wire 1 $ q [2] $end
$var wire 1 % q [1] $end
$var wire 1 & q [0] $end
$var wire 1 ' reset $end

$scope module i1 $end
$var wire 1 ( gnd $end
$var wire 1 ) vcc $end
$var wire 1 * unknown $end
$var wire 1 + devoe $end
$var wire 1 , devclrn $end
$var wire 1 - devpor $end
$var wire 1 . ww_devoe $end
$var wire 1 / ww_devclrn $end
$var wire 1 0 ww_devpor $end
$var wire 1 1 ww_clock $end
$var wire 1 2 ww_reset $end
$var wire 1 3 ww_enable $end
$var wire 1 4 ww_q [3] $end
$var wire 1 5 ww_q [2] $end
$var wire 1 6 ww_q [1] $end
$var wire 1 7 ww_q [0] $end
$var wire 1 8 \q[0]~output_o\ $end
$var wire 1 9 \q[1]~output_o\ $end
$var wire 1 : \q[2]~output_o\ $end
$var wire 1 ; \q[3]~output_o\ $end
$var wire 1 < \clock~input_o\ $end
$var wire 1 = \enable~input_o\ $end
$var wire 1 > \contagem[0]~0_combout\ $end
$var wire 1 ? \reset~input_o\ $end
$var wire 1 @ \contagem[1]~1_combout\ $end
$var wire 1 A \contagem[2]~2_combout\ $end
$var wire 1 B \contagem[3]~3_combout\ $end
$var wire 1 C contagem [3] $end
$var wire 1 D contagem [2] $end
$var wire 1 E contagem [1] $end
$var wire 1 F contagem [0] $end
$var wire 1 G \ALT_INV_reset~input_o\ $end
$var wire 1 H \ALT_INV_enable~input_o\ $end
$var wire 1 I ALT_INV_contagem [3] $end
$var wire 1 J ALT_INV_contagem [2] $end
$var wire 1 K ALT_INV_contagem [1] $end
$var wire 1 L ALT_INV_contagem [0] $end
$upscope $end
$upscope $end
$enddefinitions $end
#0
$dumpvars
0!
0"
0'
0(
1)
x*
1+
1,
1-
1.
1/
10
01
02
03
08
09
0:
0;
0<
0=
0>
0?
0@
0A
0B
1G
1H
04
05
06
07
0C
0D
0E
0F
1I
1J
1K
1L
0#
0$
0%
0&
$end
#500000
1!
1'
11
12
1?
1<
0G
#1000000
0!
0'
1"
01
02
13
1=
0?
0<
1G
0H
1>
#1500000
1!
1'
11
12
1?
1<
0G
1F
0F
0L
1L
0>
1@
1>
0@
18
08
17
07
1&
0&
#2000000
0!
0'
0"
01
02
03
0=
0?
0<
1G
1H
0>
#2500000
1!
1'
11
12
1?
1<
0G
#3000000
0!
0'
1"
01
02
13
1=
0?
0<
1G
0H
1>
#3500000
1!
1'
11
12
1?
1<
0G
1F
0F
0L
1L
0>
1@
1>
0@
18
08
17
07
1&
0&
#4000000
0!
0'
0"
01
02
03
0=
0?
0<
1G
1H
0>
#4500000
1!
1'
11
12
1?
1<
0G
#5000000
0!
0'
1"
01
02
13
1=
0?
0<
1G
0H
1>
#5500000
1!
1'
11
12
1?
1<
0G
1F
0F
0L
1L
0>
1@
1>
0@
18
08
17
07
1&
0&
#6000000
0!
0'
0"
01
02
03
0=
0?
0<
1G
1H
0>
#6500000
1!
1'
11
12
1?
1<
0G
#7000000
0!
0'
1"
01
02
13
1=
0?
0<
1G
0H
1>
#7500000
1!
1'
11
12
1?
1<
0G
1F
0F
0L
1L
0>
1@
1>
0@
18
08
17
07
1&
0&
#8000000
0!
0'
0"
01
02
03
0=
0?
0<
1G
1H
0>
#8500000
1!
1'
11
12
1?
1<
0G
#9000000
0!
0'
1"
01
02
13
1=
0?
0<
1G
0H
1>
#9500000
1!
1'
11
12
1?
1<
0G
1F
0F
0L
1L
0>
1@
1>
0@
18
08
17
07
1&
0&
#10000000
0!
0'
0"
01
02
03
0=
0?
0<
1G
1H
0>
#10500000
1!
1'
11
12
1?
1<
0G
#11000000
0!
0'
1"
01
02
13
1=
0?
0<
1G
0H
1>
#11500000
1!
1'
11
12
1?
1<
0G
1F
0F
0L
1L
0>
1@
1>
0@
18
08
17
07
1&
0&
#12000000
0!
0'
0"
01
02
03
0=
0?
0<
1G
1H
0>
#12500000
1!
1'
11
12
1?
1<
0G
#13000000
0!
0'
1"
01
02
13
1=
0?
0<
1G
0H
1>
#13500000
1!
1'
11
12
1?
1<
0G
1F
0F
0L
1L
0>
1@
1>
0@
18
08
17
07
1&
0&
#14000000
0!
0'
0"
01
02
03
0=
0?
0<
1G
1H
0>
#14500000
1!
1'
11
12
1?
1<
0G
#15000000
0!
0'
1"
01
02
13
1=
0?
0<
1G
0H
1>
#15500000
1!
1'
11
12
1?
1<
0G
1F
0F
0L
1L
0>
1@
1>
0@
18
08
17
07
1&
0&
